{
  "$schema": "https://docs.renovatebot.com/renovate-schema.json",
  "extends": ["gitlab>gitlab-com/gl-infra/common-ci-tasks:renovate-common"],
  "rebaseWhen": "conflicted",
  "packageRules": [
    {
      "groupName": "go",
      "matchPackageNames": ["golang"],
      "separateMinorPatch": true
    },
    {
      "groupName": "ruby",
      "matchPackageNames": ["ruby"],
      "separateMinorPatch": true
    },
    {
      "groupName": "golangci-lint",
      "matchPackageNames": ["golangci/golangci-lint"],
      "separateMinorPatch": true
    },
    {
      "groupName": "Opentelemetry gems",
      "matchPackagePatterns": ["^opentelemetry"]
    },
    {
      "description": "regenerate mocks",
      "matchPackageNames": ["vektra/mockery"],
      "postUpgradeTasks": {
        "commands": [
          "ASDF_DIR=/asdf ./scripts/install-asdf-plugins.sh",
          "ASDF_DIR=/asdf ./bin/mockery"
        ],
        "fileFilters": [
          "metrics/mocks/*.go",
          "metrics/**/mock_*.go"
        ],
        "executionMode": "update"
      }
    }
  ],
  "prConcurrentLimit": 0
}
